Designing the Data Science Classroom - Teaching modern modeling with tidymodels
…
augment()

Base R
Tidymodels

base_lm_aug <- augment(base_lm)
base_lm_aug

# A tibble: 9,976 × 9
   .rownames interest_rate debt_…¹ .fitted .resid    .hat .sigma .cooksd .std.…²
   <chr>             <dbl>   <dbl>   <dbl>  <dbl>   <dbl>  <dbl>   <dbl>   <dbl>
 1 1                 14.1    18.0     12.4  1.71  1.01e-4   4.95 6.02e-6  0.345 
 2 2                 12.6     5.04    11.7  0.861 1.91e-4   4.95 2.89e-6  0.174 
 3 3                 17.1    21.2     12.5  4.58  1.02e-4   4.95 4.36e-5  0.926 
 4 4                  6.72   10.2     12.0 -5.27  1.38e-4   4.95 7.80e-5 -1.07  
 5 5                 14.1    58.0     14.2 -0.176 7.65e-4   4.95 4.86e-7 -0.0356
 6 6                  6.72    6.46    11.8 -5.10  1.74e-4   4.95 9.22e-5 -1.03  
 7 7                 13.6    23.7     12.6  0.962 1.09e-4   4.95 2.06e-6  0.194 
 8 8                 12.0    16.2     12.3 -0.285 1.05e-4   4.95 1.74e-7 -0.0577
 9 9                 13.6    36.5     13.2  0.357 2.32e-4   4.95 6.04e-7  0.0722
10 10                 6.71   18.9     12.4 -5.69  1.00e-4   4.95 6.64e-5 -1.15  
# … with 9,966 more rows, and abbreviated variable names ¹​debt_to_income,
#   ²​.std.resid
# ℹ Use `print(n = ...)` to see more rows

tidy_lm_aug <- augment(tidy_lm$fit)
tidy_lm_aug

# A tibble: 9,976 × 9
   .rownames interest_rate debt_…¹ .fitted .resid    .hat .sigma .cooksd .std.…²
   <chr>             <dbl>   <dbl>   <dbl>  <dbl>   <dbl>  <dbl>   <dbl>   <dbl>
 1 1                 14.1    18.0     12.4  1.71  1.01e-4   4.95 6.02e-6  0.345 
 2 2                 12.6     5.04    11.7  0.861 1.91e-4   4.95 2.89e-6  0.174 
 3 3                 17.1    21.2     12.5  4.58  1.02e-4   4.95 4.36e-5  0.926 
 4 4                  6.72   10.2     12.0 -5.27  1.38e-4   4.95 7.80e-5 -1.07  
 5 5                 14.1    58.0     14.2 -0.176 7.65e-4   4.95 4.86e-7 -0.0356
 6 6                  6.72    6.46    11.8 -5.10  1.74e-4   4.95 9.22e-5 -1.03  
 7 7                 13.6    23.7     12.6  0.962 1.09e-4   4.95 2.06e-6  0.194 
 8 8                 12.0    16.2     12.3 -0.285 1.05e-4   4.95 1.74e-7 -0.0577
 9 9                 13.6    36.5     13.2  0.357 2.32e-4   4.95 6.04e-7  0.0722
10 10                 6.71   18.9     12.4 -5.69  1.00e-4   4.95 6.64e-5 -1.15  
# … with 9,966 more rows, and abbreviated variable names ¹​debt_to_income,
#   ²​.std.resid
# ℹ Use `print(n = ...)` to see more rows
…
