Designing the Data Science Classroom - Ex 2.2: Side-by-side box plots
…
loans <- loans_full_schema %>%
  mutate(
    homeownership = str_to_title(homeownership), 
    bankruptcy = if_else(public_record_bankrupt >= 1, "Yes", "No")
  ) %>%
  filter(annual_income >= 10) %>%
  select(
    loan_amount, homeownership, bankruptcy,
    application_type, annual_income, interest_rate
  )

loans

# A tibble: 9,976 × 6
   loan_amount homeownership bankruptcy application_type annual_income
         <int> <chr>         <chr>      <fct>                    <dbl>
 1       28000 Mortgage      No         individual               90000
 2        5000 Rent          Yes        individual               40000
 3        2000 Rent          No         individual               40000
 4       21600 Rent          No         individual               30000
 5       23000 Rent          No         joint                    35000
 6        5000 Own           No         individual               34000
 7       24000 Mortgage      No         joint                    35000
 8       20000 Mortgage      No         individual              110000
 9       20000 Mortgage      No         individual               65000
10        6400 Rent          No         individual               30000
# … with 9,966 more rows, and 1 more variable: interest_rate <dbl>
…
