Designing the Data Science Classroom - Teaching data science with the tidyverse
…
Start with a data frame

loans

# A tibble: 9,976 × 6
  loan_amount homeownership bankruptcy application_type annual_income interest_rate
        <int> <chr>         <chr>      <fct>                    <dbl>         <dbl>
1       28000 Mortgage      No         individual               90000         14.1 
2        5000 Rent          Yes        individual               40000         12.6 
3        2000 Rent          No         individual               40000         17.1 
4       21600 Rent          No         individual               30000          6.72
5       23000 Rent          No         joint                    35000         14.1 
6        5000 Own           No         individual               34000          6.72
# … with 9,970 more rows
…
Each variable forms a column

Each observation forms a row

Each type of observational unit forms a table

Wickham, H. . (2014). Tidy Data. Journal of Statistical Software, 59(10), 1–23. doi.org/10.18637/jss.v059.i10.

Task: Calculate a summary statistic

Calculate the mean loan amount.

loans

# A tibble: 9,976 × 6
  loan_amount homeownership bankruptcy application_type annual_income interest_rate
        <int> <chr>         <chr>      <fct>                    <dbl>         <dbl>
1       28000 Mortgage      No         individual               90000         14.1 
2        5000 Rent          Yes        individual               40000         12.6 
3        2000 Rent          No         individual               40000         17.1 
4       21600 Rent          No         individual               30000          6.72
5       23000 Rent          No         joint                    35000         14.1 
6        5000 Own           No         individual               34000          6.72
# … with 9,970 more rows
…
    Own 
    1,350 
    $15,665 

15:00

Break it down I

Based on the applicants’ home ownership status, computer the number of applicants and the average loan amount. Display the results in descending order of number of applicants.

loans

# A tibble: 9,976 × 6
  loan_amount homeownership bankruptcy application_type annual_income interest_rate
        <int> <chr>         <chr>      <fct>                    <dbl>         <dbl>
1       28000 Mortgage      No         individual               90000         14.1 
2        5000 Rent          Yes        individual               40000         12.6 
3        2000 Rent          No         individual               40000         17.1 
4       21600 Rent          No         individual               30000          6.72
5       23000 Rent          No         joint                    35000         14.1 
6        5000 Own           No         individual               34000          6.72
# … with 9,970 more rows

Break it down II

Based on the applicants’ home ownership status, compute the number of applicants and the average loan amount. Display the results in descending order of number of applicants.

[input] data frame

loans |>
  group_by(homeownership)

# A tibble: 9,976 × 6
# Groups:   homeownership [3]
  loan_amount homeownership bankruptcy application_type annual_income interest_rate
        <int> <chr>         <chr>      <fct>                    <dbl>         <dbl>
1       28000 Mortgage      No         individual               90000         14.1 
2        5000 Rent          Yes        individual               40000         12.6 
3        2000 Rent          No         individual               40000         17.1 
4       21600 Rent          No         individual               30000          6.72
5       23000 Rent          No         joint                    35000         14.1 
6        5000 Own           No         individual               34000          6.72
# … with 9,970 more rows
…
